{
    "footer": {
        "blocks": [
            "footer-layout.desktop",
            "footer-layout.mobile"
        ]
    },
    "footer-layout.desktop": {
        "children": [
            "flex-layout.row#first-row",
            "flex-layout.row#second-row",
            "flex-layout.row#third-row",
            "flex-layout.row#copyright"
        ]
    },
    "footer-layout.mobile": {
        "children": [
            "flex-layout.row#footer"
        ]
    }
}