{
  "flex-layout.row#shelf-main-container": {
    "children": [
      "flex-layout.row#shelf-title",
      "flex-layout.row#mid",
      "flex-layout.row#link"
    ],
    "props": {
      "blockClass": "shelf-main-container"
    }
  },
  "flex-layout.row#shelf-title": {
    "children": [
      "rich-text#shelf-title"
    ],
    "props": {
      "blockClass": "shelf-title"
    }
  },
  "rich-text#shelf-title": {
    "props": {
      "text": "Destilados",
      "blockClass": "shelf-title"
    }
  },

  "flex-layout.row#mid": {
    "children": [
      "flex-layout.col#shelf-banner",
      "flex-layout.col#shelf"
    ],
    "props": {
      "blockClass": "mid"
    }
  },

  "flex-layout.col#shelf-banner": {
    "children": [
      "image#shelf"
    ],
    "props": {
      "blockClass": "shelf-banner"
    }
  },
  "image#shelf": {
    "props": {
      "blockClass": "image-shelf"
    }
  },

  "flex-layout.col#shelf": {
    "children": [
      "shelf#main"
    ]
  },
  "shelf#main": {
    "blocks": [
      "product-summary.shelf#shelf"
    ],
    "props": {
      "blockClass": "main",
      "paginationDotsVisibility": "never",
      "productList": {
        "itemsPerPage": 3,
        "arrows": true,
        "showTitle": false
      }
    }
  },
  "flex-layout.row#link": {
    "children": [
      "link#product-link"
    ],
    "props": {
      "blockClass": "product-link"
    }
  },
  "link#product-link": {
    "props": {
      "href": "",
      "label": "Veja todos os destilados",
      "blockClass": "product-link"
    }
  },


  "flex-layout.row#shelf-mobile-condition": {
      "children": [
        "flex-layout.col#shelf-mobile-condition"
      ]
  },
  "flex-layout.col#shelf-mobile-condition": {
    "children": [
      "flex-layout.row#shelf--mobile-main-container"
    ]
  },
  //Mobile
  "flex-layout.row#shelf--mobile-main-container": {
    "children": [
      "flex-layout.row#shelf-mobile-title",
      "flex-layout.row#mid-mobile",
      "flex-layout.row#link-mobile"
    ],
    "props": {
      "blockClass": "shelf-main-container"
    }
  },
  "flex-layout.row#shelf-mobile-title": {
    "children": [
      "rich-text#shelf-mobile-title"
    ],
    "props": {
      "blockClass": "shelf-title"
    }
  },
  "rich-text#shelf-mobile-title": {
    "props": {
      "text": "Destilados",
      "blockClass": "shelf-title"
    }
  },

  "flex-layout.row#mid-mobile": {
    "children": [
      "flex-layout.row#shelf-mobile-banner",
      "flex-layout.row#shelf-mobile"
    ],
    "props": {
      "blockClass": "mid"
    }
  },

  "flex-layout.row#shelf-mobile-banner": {
    "children": [
      "image#shelf-mobile"
    ],
    "props": {
      "blockClass": "shelf-banner"
    }
  },
  "image#shelf-mobile": {
    "props": {
      "blockClass": "image-shelf"
    }
  },

  "flex-layout.row#shelf-mobile": {
    "children": [
      "shelf#main-mobile"
    ]
  },
  "shelf#main-mobile": {
    "blocks": [
      "product-summary.shelf#shelf"
    ],
    "props": {
      "blockClass": "main",
      "paginationDotsVisibility": "never",
      "productList": {
        "itemsPerPage": 2,
        "arrows": true,
        "showTitle": false,
        "minItemsPerPage": 2
      }
    }
  },
  "flex-layout.row#link-mobile": {
    "children": [
      "link#product-mobile-link"
    ],
    "props": {
      "blockClass": "product-link"
    }
  },
  "link#product-mobile-link": {
    "props": {
      "href": "",
      "label": "Veja todos os destilados",
      "blockClass": "product-link"
    }
  },

//  mobile personalizado

  "flex-layout.row#shelf-custom-mobile-main-container": {
    "children": [
      "flex-layout.row#custom-shelf-mobile-title",
      "flex-layout.row#custom-mid-mobile",
      "flex-layout.row#custom-link-mobile"
    ],
    "props": {
      "blockClass": "custom-shelf-main-container"
    }
  },
  "flex-layout.row#custom-shelf-mobile-title": {
    "children": [
      "flex-layout.row#custom-shelf-mobile-banner",
      "rich-text#custom-shelf-mobile-title"
    ],
    "props": {
      "blockClass": "custom-shelf-title"
    }
  },

  "flex-layout.row#custom-shelf-mobile-banner": {
    "children": [
      "image#custom-shelf-mobile"
    ],
    "props": {
      "blockClass": "custom-shelf-banner"
    }
  },

  "rich-text#custom-shelf-mobile-title": {
    "props": {
      "text": "Destilados",
      "blockClass": "custom-shelf-title"
    }
  },

  "flex-layout.row#custom-mid-mobile": {
    "children": [
      "flex-layout.row#custom-shelf-mobile"
    ],
    "props": {
      "blockClass": "custom-mid"
    }
  },

  "image#custom-shelf-mobile": {
    "props": {
      "blockClass": "custom-image-shelf"
    }
  },

  "flex-layout.row#custom-shelf-mobile": {
    "children": [
      "shelf#custom-main-mobile"
    ]
  },
  "shelf#custom-main-mobile": {
    "blocks": [
      "product-summary.shelf#shelf"
    ],
    "props": {
      "blockClass": "main",
      "paginationDotsVisibility": "never",
      "productList": {
        "itemsPerPage": 2,
        "arrows": true,
        "showTitle": false,
        "minItemsPerPage": 2
      }
    }
  },
  "flex-layout.row#custom-link-mobile": {
    "children": [
      "link#custom-product-mobile-link"
    ],
    "props": {
      "blockClass": "custom-product-link"
    }
  },
  "link#custom-product-mobile-link": {
    "props": {
      "href": "",
      "label": "Veja todos os destilados",
      "blockClass": "custom-product-link"
    }
  }
}