{
  "product-summary.shelf#shelf": {
    "children": [
      "add-to-list-btn",
      "product-summary-image",
      "product-summary-name#product-name",
      "flex-layout.row#product-rating-price",
      "flex-layout.row#product-price",
      "add-to-cart-button#addToCart"
    ]
  },

  "product-summary-image": {
    "props": {
      "showBadge": false,
      "aspectRatio": "1:1",
      "maxHeight": 300
    }
  },

  "product-summary-name#product-name": {
    "props": {
      "blockClass": "product-name"
    }
  },

  "flex-layout.row#product-rating-price": {
    "children": [
      "product-price#product-rating-price",
      "product-price-savings#savings"
    ],
    "props": {
      "blockClass": "product-rating-price"
    }
  },

  "product-price#product-rating-price": {
    "props": {
      "blockClass": "product-rating-price"
    }
  },
  "product-price-savings#savings": {
    "props": {
      "blockClass": "price-savings",
      "message": "{savingsPercentage}"
    }
  },

  "flex-layout.row#product-price": {
    "children": [
      "product-price#product-price",
      "product-installments#installments"
    ],
    "props": {
      "blockClass": "price"
    }
  },
  "product-price#product-price": {
    "props": {
      "blockClass": "price"
    }
  },
  "product-installments#installments": {
    "props": {
      "blockClass": "product-installments"
    }
  },

  "add-to-cart-button#addToCart": {
    "props": {
      "blockClass": "add-to-cart-button",
      "text": "Comprar"
    }
  }
}