{
    "flex-layout.row#simple-slider-wrapper--1": {
        "children": [
            "flex-layout.row#simple-slider--1"
        ],
        "props": {
            "blockClass": "simple-slider---1",
            "fullWidth": "true"
        }
    },
    "flex-layout.row#simple-slider--1": {
        "children": [
            "list-context.image-list#simple-slider--1"
        ],
        "props": {
            "blockClass": "simple-slider-false---1",
            "fullWidth": "true"
        }
    },
    "list-context.image-list#simple-slider--1": {
        "children": [
            "slider-layout#simple-slider--1"
        ],
        "props": {
            "blockClass": "simple-slider-false---1",
            "images": []
        }
    },
    "slider-layout#simple-slider--1": {
        "props": {
            "itemsPerPage": {
                "desktop": 1,
                "tablet": 1,
                "phone": 1
            },
            "showPaginationDots": "always",
            "showPaginationArrows": "always",
            "infinite": true,
            "autoplay": {
                "timeout": 4000,
                "stopOnHover": true
            },
            "blockClass": "simple-slider-false---1",
            "fullWidth": false
        }
    }
}