<svg xmlns="http://www.w3.org/2000/svg" xmlns:xlink="http://www.w3.org/1999/xlink" width="16" height="16" viewBox="0 0 16 16">
  <defs>
    <clipPath id="clip-path">
      <rect id="Retângulo_1844" data-name="Retângulo 1844" width="16" height="16" transform="translate(6286 1070)" fill="#fff"/>
    </clipPath>
  </defs>
  <g id="heart" transform="translate(-6286 -1070)" clip-path="url(#clip-path)">
    <g id="_16-heart" data-name="16-heart" transform="translate(6287.034 1071.5)">
      <path id="Caminho_4819" data-name="Caminho 4819" d="M2.187,3.221a4.021,4.021,0,0,1,5.771,0,4.021,4.021,0,0,1,5.771,0,4.225,4.225,0,0,1,0,5.892L7.958,15,2.187,9.109a4.225,4.225,0,0,1,0-5.888Z" transform="translate(-0.993 -2.001)" fill="none" stroke="#000" stroke-linecap="round" stroke-linejoin="round" stroke-width="0.6"/>
      <path id="Caminho_4820" data-name="Caminho 4820" d="M22,8.658A1.658,1.658,0,0,1,23.658,7" transform="translate(-19.639 -4.637)" fill="none" stroke="#000" stroke-linecap="round" stroke-linejoin="round" stroke-width="0.6"/>
    </g>
  </g>
</svg>
