<svg xmlns="http://www.w3.org/2000/svg" width="27" height="18" viewBox="0 0 27 18">
  <g id="Grupo_1259" data-name="Grupo 1259" transform="translate(-15 -22)">
    <rect id="Retângulo_354" data-name="Retângulo 354" width="27" height="2" rx="1" transform="translate(15 22)"/>
    <rect id="Retângulo_355" data-name="Retângulo 355" width="15" height="2" rx="1" transform="translate(15 30)"/>
    <rect id="Retângulo_356" data-name="Retângulo 356" width="22" height="2" rx="1" transform="translate(15 38)"/>
  </g>
</svg>
