<svg xmlns="http://www.w3.org/2000/svg" width="16" height="12" viewBox="0 0 16 12">
  <g id="Grupo_1774" data-name="Grupo 1774" transform="translate(-112.988 -105.889)">
    <rect id="Retângulo_1723" data-name="Retângulo 1723" width="16" height="2" rx="1" transform="translate(112.988 105.889)" fill="#19a99d"/>
    <rect id="Retângulo_1724" data-name="Retângulo 1724" width="16" height="2" rx="1" transform="translate(112.988 110.889)" fill="#19a99d"/>
    <rect id="Retângulo_1725" data-name="Retângulo 1725" width="16" height="2" rx="1" transform="translate(112.988 115.889)" fill="#19a99d"/>
  </g>
</svg>
