<svg xmlns="http://www.w3.org/2000/svg" xmlns:xlink="http://www.w3.org/1999/xlink" width="16" height="16" viewBox="0 0 16 16">
  <defs>
    <clipPath id="clip-path">
      <rect id="Retângulo_1842" data-name="Retângulo 1842" width="16" height="16" transform="translate(6327 1070)" fill="#fff"/>
    </clipPath>
  </defs>
  <g id="cart" transform="translate(-6327 -1070)" clip-path="url(#clip-path)">
    <g id="Grupo_2158" data-name="Grupo 2158" transform="translate(0.358 0.684)">
      <g id="Caminho_4822" data-name="Caminho 4822" transform="translate(6331.035 1073)">
        <path id="Caminho_4820" data-name="Caminho 4820" d="M-1.821,0-.476,6H9.267l2.057-6H-1.821m0,0H11.323L9.267,6H-.476Z" fill="none" stroke="#000" stroke-width="0.6"/>
      </g>
      <path id="Caminho_4823" data-name="Caminho 4823" d="M6330.985,1080.994c-.7-.042-1.058.224-.982.916.034,1.293,1.081,1.208,1.081,1.208h8.446" transform="translate(0.035 -2)" fill="none" stroke="#000" stroke-width="0.6"/>
      <path id="Caminho_4824" data-name="Caminho 4824" d="M6329.253,1075.264a3.914,3.914,0,0,0-.592-1.429,1.151,1.151,0,0,0-1.054-.339" transform="translate(0.035 -2)" fill="none" stroke="#000" stroke-width="0.6"/>
      <g id="Grupo_2157" data-name="Grupo 2157">
        <g id="Elipse_31" data-name="Elipse 31" transform="translate(6330 1082)" fill="none" stroke="#000" stroke-width="0.6">
          <circle cx="1.5" cy="1.5" r="1.5" stroke="none"/>
          <circle cx="1.5" cy="1.5" r="1.2" fill="none"/>
        </g>
        <g id="Elipse_32" data-name="Elipse 32" transform="translate(6336 1082)" fill="none" stroke="#000" stroke-width="0.6">
          <circle cx="1.5" cy="1.5" r="1.5" stroke="none"/>
          <circle cx="1.5" cy="1.5" r="1.2" fill="none"/>
        </g>
      </g>
      <path id="Caminho_4829" data-name="Caminho 4829" d="M6331.733,1073.271h0v-.224l-.619-2.062,3.739-.752.7,2.919" fill="none" stroke="#000" stroke-width="0.6"/>
      <path id="Caminho_4830" data-name="Caminho 4830" d="M6331.733,1073.271v-.161l-.618-2.125,3.739-.752.717,2.948" transform="translate(5.528)" fill="none" stroke="#000" stroke-width="0.6"/>
    </g>
  </g>
</svg>
